<?xml version="1.0" encoding="utf-8"?>
<!-- Generator: Adobe Illustrator 21.1.0, SVG Export Plug-In . SVG Version: 6.00 Build 0)  -->
<svg version="1.1" id="Layer_1" xmlns="http://www.w3.org/2000/svg" xmlns:xlink="http://www.w3.org/1999/xlink" x="0px" y="0px"
	 viewBox="0 0 368.3 658" style="enable-background:new 0 0 368.3 658;" xml:space="preserve">
<style type="text/css">
	.st0{fill:#FFFFFF;}
	.st1{clip-path:url(#SVGID_2_);}
	.st2{fill:#11AAFF;}
	.st3{clip-path:url(#SVGID_4_);}
	.st4{clip-path:url(#SVGID_6_);}
	.st5{clip-path:url(#SVGID_8_);}
	.st6{clip-path:url(#SVGID_10_);}
</style>
<rect y="-7" class="st0" width="375" height="667"/>
<g>
	<defs>
		<rect id="SVGID_1_" y="-7" width="375" height="667"/>
	</defs>
	<clipPath id="SVGID_2_">
		<use xlink:href="#SVGID_1_"  style="overflow:visible;"/>
	</clipPath>
	<g class="st1">
		<path class="st2" d="M0-7h375v686H0V-7z"/>
	</g>
</g>
<g>
	<defs>
		<rect id="SVGID_3_" y="-7" width="375" height="667"/>
	</defs>
	<clipPath id="SVGID_4_">
		<use xlink:href="#SVGID_3_"  style="overflow:visible;"/>
	</clipPath>
	<g class="st3">
		<g transform="translate(-142.023 -142.023)">
			
				<image style="overflow:visible;enable-background:new    ;" width="761" height="761" id="img_0" xlink:href="5AE7696C.png"  transform="matrix(1 0 0 1 -349.023 -272.023)">
			</image>
		</g>
	</g>
</g>
<g>
	<defs>
		<rect id="SVGID_5_" y="-7" width="375" height="667"/>
	</defs>
	<clipPath id="SVGID_6_">
		<use xlink:href="#SVGID_5_"  style="overflow:visible;"/>
	</clipPath>
	<g class="st4">
		<g transform="translate(-142.023 -142.023)">
			
				<image style="overflow:visible;enable-background:new    ;" width="760" height="760" id="img_1" xlink:href="5AE76962.png"  transform="matrix(1 0 0 1 -349.023 -272.023)">
			</image>
		</g>
	</g>
</g>
<g>
	<defs>
		<rect id="SVGID_7_" y="-7" width="375" height="667"/>
	</defs>
	<clipPath id="SVGID_8_">
		<use xlink:href="#SVGID_7_"  style="overflow:visible;"/>
	</clipPath>
	<g class="st5">
		<g transform="translate(-36.0229 236.977)">
			
				<image style="overflow:visible;enable-background:new    ;" width="761" height="761" id="img_2" xlink:href="5AE76963.png"  transform="matrix(1 0 0 1 -243.0229 106.977)">
			</image>
		</g>
	</g>
</g>
<g>
	<defs>
		<rect id="SVGID_9_" x="-2" y="-7" width="378.9" height="674"/>
	</defs>
	<clipPath id="SVGID_10_">
		<use xlink:href="#SVGID_9_"  style="overflow:visible;"/>
	</clipPath>
	<g class="st6">
		<g transform="translate(-36.0229 236.977)">
			
				<image style="overflow:visible;enable-background:new    ;" width="760" height="760" id="img_3" xlink:href="5AE76965.png"  transform="matrix(1.0105 0 0 1.0105 -247.5411 108.1732)">
			</image>
		</g>
	</g>
</g>
</svg>
